.............
----------------------------------------------------------------------
Ran 13 tests in 0.182s

OK
Name             Stmts   Miss Branch BrPart  Cover   Missing
------------------------------------------------------------
Collatz.py          28      1     10      1    95%   52
TestCollatz.py      60      0      2      0   100%
------------------------------------------------------------
TOTAL               88      1     12      1    98%
